TidyTuesday
…
---

count: false
.pull-left-reveal[

```r
*co2_emission_tb
```
]
.pull-right-reveal[

```
## # A tibble: 21 x 3
##    country     co2_emission  rank
##    <chr>              <dbl> <int>
##  1 Argentina          2172.     1
##  2 Australia          1939.     2
##  3 Albania            1778.     3
##  4 New Zealand        1751.     4
##  5 Iceland            1731.     5
##  6 USA                1719.     6
##  7 Uruguay            1635.     7
##  8 Brazil             1617.     8
##  9 Luxembourg         1598.     9
## 10 Kazakhstan         1575.    10
## # … with 11 more rows
```
…
